# Blender v2.77 (sub 0) OBJ File: '未完.blend'
# www.blender.org
mtllib GreenHouse.mtl
o Cube_Cube.001
v -0.379017 0.410357 0.826840
v -0.379017 -0.027942 0.436898
v -0.379017 -0.027942 1.247889
v -0.379017 1.011822 1.247888
v -0.379017 0.655901 0.742988
v -0.379017 0.698030 0.826840
v -0.379017 0.655901 0.910693
v -0.379017 0.554193 0.945427
v -0.379017 0.452486 0.910693
v -0.379017 0.452486 0.742987
v -0.379017 0.554193 0.708254
v -0.379017 1.011822 -0.884040
v -0.379017 -0.027942 -0.884040
v -0.379017 -0.027942 -0.035077
v -0.379017 0.501718 -0.035077
v -0.379017 0.501718 0.436898
v 0.457407 -0.027942 0.436898
v 0.457407 -0.027942 1.247889
v 0.457407 1.011822 1.247888
v 0.457407 1.011822 -0.884040
v 0.457407 -0.027942 -0.884040
v 0.457407 -0.027942 -0.035077
v 0.457407 0.501718 -0.035077
v 0.457407 0.501718 0.436898
v 0.457407 0.410357 0.826840
v 0.457407 0.452486 0.910693
v 0.457407 0.554193 0.945427
v 0.457407 0.655901 0.910693
v 0.457407 0.698030 0.826840
v 0.457407 0.655901 0.742988
v 0.457407 0.452486 0.742987
v 0.457407 0.582710 -0.463973
v 0.457407 0.609015 -0.400465
v 0.457407 0.672523 -0.374159
v 0.457407 0.736030 -0.400465
v 0.457407 0.762336 -0.463973
v 0.457407 0.554193 0.708254
v 0.457407 0.736030 -0.527480
v 0.457407 0.672523 -0.553786
v 0.457407 0.609015 -0.527480
v -0.532056 1.677633 1.581670
v -0.532056 1.677633 -1.140312
v -0.532056 1.045363 -1.140312
v -0.532056 1.045363 1.581670
v 0.606012 1.305761 1.581670
v 0.606012 1.045363 1.581670
v 0.606012 1.305761 -1.140312
v 0.606012 1.045363 -1.140312
v -0.017155 1.050027 -1.138800
v -0.017155 2.066881 0.218351
v 0.076394 1.050027 -1.112722
v 0.166349 1.050027 -1.035493
v 0.249251 1.050027 -0.910078
v 0.321916 1.050027 -0.741299
v 0.381550 1.050027 -0.535641
v 0.425862 1.050027 -0.301008
v 0.453150 1.050027 -0.046416
v 0.462364 1.050027 0.218351
v 0.453150 1.050027 0.483118
v 0.425862 1.050027 0.737710
v 0.381550 1.050027 0.972344
v 0.321916 1.050027 1.178002
v 0.249251 1.050027 1.346781
v 0.166349 1.050027 1.472195
v 0.076394 1.050027 1.549425
v -0.017155 1.050027 1.575502
v -0.110705 1.050027 1.549424
v -0.200659 1.050027 1.472194
v -0.283562 1.050027 1.346780
v -0.356227 1.050027 1.178001
v -0.415861 1.050027 0.972343
v -0.460173 1.050027 0.737709
v -0.487461 1.050027 0.483117
v -0.496674 1.050027 0.218350
v -0.487460 1.050027 -0.046417
v -0.460173 1.050027 -0.301009
v -0.415860 1.050027 -0.535643
v -0.356226 1.050027 -0.741300
v -0.283561 1.050027 -0.910079
v -0.200659 1.050027 -1.035493
v -0.110704 1.050027 -1.112723
vt 0.221265 0.793762
vt 0.000000 0.793762
vt 0.097385 0.761664
vt 0.075741 0.740180
vt 0.108552 0.657609
vt 0.108552 0.707697
vt 0.727865 0.513171
vt 0.501607 0.739419
vt 0.501607 0.513171
vt 0.547292 0.000000
vt 0.773551 0.226247
vt 0.547292 0.226247
vt 0.501607 0.286924
vt 0.727865 0.513171
vt 0.501607 0.513171
vt 0.394042 1.000000
vt 0.484141 0.773753
vt 0.484141 1.000000
vt 0.278785 1.000000
vt 0.394041 0.773753
vt 0.394042 1.000000
vt 0.262617 0.307840
vt 0.212527 0.534087
vt 0.212527 0.307840
vt 0.980708 0.575790
vt 0.865451 0.802037
vt 0.865451 0.575790
vt 0.381740 0.737968
vt 0.403536 0.741654
vt 0.278785 0.773753
vt 0.392291 0.687688
vt 0.442504 0.598824
vt 0.425333 0.720171
vt 0.278785 0.547505
vt 0.428895 0.582553
vt 0.415285 0.585345
vt 0.865451 0.286924
vt 1.000000 0.575790
vt 0.865451 0.575790
vt 0.808787 0.902604
vt 0.865451 0.594764
vt 0.865451 0.902604
vt 0.808787 0.286924
vt 0.865451 0.594764
vt 0.727865 0.594764
vt 0.000000 0.307840
vt 0.288880 0.000000
vt 0.288880 0.307840
vt 0.278785 0.836371
vt 0.222981 0.547505
vt 0.278785 0.547505
vt 0.570129 0.761734
vt 0.638651 0.972119
vt 0.546067 0.769570
vt 0.532587 0.077974
vt 0.293845 0.099149
vt 0.303585 0.073288
vt 0.594191 0.753898
vt 0.522930 0.777105
vt 0.501607 0.784049
vt 0.000000 0.457063
vt 0.212527 0.307840
vt 0.014320 0.468351
vt 0.032395 0.480901
vt 0.053531 0.494231
vt 0.076914 0.507828
vt 0.101648 0.521170
vt 0.126780 0.533743
vt 0.151346 0.545066
vt 0.174401 0.554703
vt 0.195059 0.562283
vt 0.212527 0.567515
vt 0.910595 0.000000
vt 0.910595 0.232701
vt 0.889272 0.006944
vt 0.866135 0.014479
vt 0.842073 0.022315
vt 0.818011 0.030152
vt 0.794874 0.037687
vt 0.773551 0.044631
vt 0.501607 0.286924
vt 0.501607 0.547505
vt 0.483811 0.291508
vt 0.462877 0.298545
vt 0.439610 0.307763
vt 0.414904 0.318810
vt 0.389708 0.331260
vt 0.364991 0.344636
vt 0.341703 0.358422
vt 0.320738 0.372089
vt 0.302902 0.385112
vt 0.288880 0.396991
vt 0.638651 0.739419
vt 0.617328 0.746363
vt 0.119029 0.757978
vt 0.127994 0.749079
vt 0.066776 0.749079
vt 0.075741 0.757978
vt 0.221265 0.707697
vt 0.000000 0.567515
vt 0.221265 0.567515
vt 0.221265 0.657609
vt 0.097385 0.736494
vt 0.119029 0.740180
vt 0.727865 0.739419
vt 0.773551 0.000000
vt 0.727865 0.286924
vt 0.394041 0.773753
vt 0.278785 0.773753
vt 0.262617 0.534087
vt 0.980708 0.802037
vt 0.278785 0.687688
vt 0.372712 0.729070
vt 0.434361 0.729070
vt 0.501607 0.773753
vt 0.425333 0.737968
vt 0.381740 0.720171
vt 0.392291 0.637600
vt 0.403536 0.716485
vt 0.409647 0.592084
vt 0.415285 0.598824
vt 0.428895 0.601616
vt 0.501607 0.547505
vt 0.448142 0.592084
vt 0.278785 0.637600
vt 0.442504 0.585345
vt 1.000000 0.286924
vt 0.727865 0.594764
vt 0.865451 0.286924
vt 0.000000 0.000000
vt 0.222981 0.836371
vt 0.455774 0.281932
vt 0.430812 0.286924
vt 0.405361 0.286403
vt 0.380398 0.280389
vt 0.356884 0.269113
vt 0.335722 0.253008
vt 0.518447 0.236801
vt 0.317726 0.232694
vt 0.303585 0.208950
vt 0.532587 0.213637
vt 0.293846 0.182690
vt 0.288880 0.154922
vt 0.547292 0.132002
vt 0.288880 0.126714
vt 0.542327 0.104234
vt 0.317725 0.050123
vt 0.500450 0.033915
vt 0.335722 0.030545
vt 0.356884 0.015306
vt 0.479288 0.017811
vt 0.380398 0.004992
vt 0.405360 0.000000
vt 0.430812 0.000521
vt 0.455774 0.006535
vt 0.518447 0.054230
vt 0.547292 0.160210
vt 0.542327 0.187775
vt 0.500450 0.256379
vt 0.479288 0.271618
vt 1.000000 0.000000
vt 0.000000 1.000000
vt 0.000000 0.000000
vt 1.000000 1.000000
vn -1.000000 0.000000 0.000000
vn 0.000000 0.000000 1.000000
vn 0.000000 1.000000 0.000000
vn 0.000000 0.000000 -1.000000
vn 0.000000 -1.000000 0.000000
vn 1.000000 -0.000000 0.000000
vn 0.164900 0.789300 -0.591400
vn -0.164900 0.789300 -0.591400
vn 0.448500 0.725200 -0.522400
vn 0.641800 0.638900 -0.424200
vn 0.759700 0.562000 -0.327100
vn 0.829700 0.503700 -0.240600
vn 0.870800 0.463400 -0.164500
vn 0.893700 0.438300 -0.095800
vn 0.904000 0.426300 -0.031500
vn 0.904000 0.426300 0.031500
vn 0.893700 0.438300 0.095800
vn 0.870800 0.463400 0.164500
vn 0.829700 0.503700 0.240600
vn 0.759700 0.562000 0.327100
vn 0.641800 0.638900 0.424200
vn 0.448500 0.725200 0.522400
vn 0.164900 0.789300 0.591400
vn -0.164900 0.789300 0.591400
vn -0.448500 0.725200 0.522400
vn -0.641800 0.638900 0.424200
vn -0.759700 0.562000 0.327100
vn -0.829700 0.503700 0.240600
vn -0.870800 0.463400 0.164500
vn -0.893700 0.438300 0.095800
vn -0.904000 0.426300 0.031500
vn -0.904000 0.426300 -0.031500
vn -0.893700 0.438300 -0.095800
vn -0.870800 0.463400 -0.164500
vn -0.829700 0.503700 -0.240600
vn -0.759700 0.562000 -0.327100
vn -0.641800 0.638900 -0.424200
vn -0.448500 0.725200 -0.522500
usemtl Material
s off
f 3/1/1 4/2/1 8/3/1
f 5/4/1 15/5/1 16/6/1
f 4/7/2 18/8/2 19/9/2
f 19/10/3 12/11/3 4/12/3
f 20/13/4 13/14/4 12/15/4
f 13/16/5 22/17/5 14/18/5
f 14/19/2 23/20/2 15/21/2
f 24/22/5 15/23/5 23/24/5
f 17/25/4 16/26/4 24/27/4
f 26/28/6 27/29/6 18/30/6
f 24/31/6 35/32/6 30/33/6
f 21/34/6 39/35/6 40/36/6
f 42/37/1 44/38/1 41/39/1
f 45/40/2 44/41/2 46/42/2
f 47/43/4 43/44/4 42/45/4
f 43/46/5 46/47/5 44/48/5
f 45/49/6 48/50/6 47/51/6
f 49/52/7 50/53/7 51/54/7
f 72/55/5 60/56/5 61/57/5
f 81/58/8 50/53/8 49/52/8
f 51/54/9 50/53/9 52/59/9
f 52/59/10 50/53/10 53/60/10
f 53/61/11 50/62/11 54/63/11
f 54/63/12 50/62/12 55/64/12
f 55/64/13 50/62/13 56/65/13
f 56/65/14 50/62/14 57/66/14
f 57/66/15 50/62/15 58/67/15
f 58/67/16 50/62/16 59/68/16
f 59/68/17 50/62/17 60/69/17
f 60/69/18 50/62/18 61/70/18
f 61/70/19 50/62/19 62/71/19
f 62/71/20 50/62/20 63/72/20
f 63/73/21 50/74/21 64/75/21
f 64/75/22 50/74/22 65/76/22
f 65/76/23 50/74/23 66/77/23
f 66/77/24 50/74/24 67/78/24
f 67/78/25 50/74/25 68/79/25
f 68/79/26 50/74/26 69/80/26
f 69/81/27 50/82/27 70/83/27
f 70/83/28 50/82/28 71/84/28
f 71/84/29 50/82/29 72/85/29
f 72/85/30 50/82/30 73/86/30
f 73/86/31 50/82/31 74/87/31
f 74/87/32 50/82/32 75/88/32
f 75/88/33 50/82/33 76/89/33
f 76/89/34 50/82/34 77/90/34
f 77/90/35 50/82/35 78/91/35
f 78/91/36 50/82/36 79/92/36
f 79/93/37 50/53/37 80/94/37
f 80/94/38 50/53/38 81/58/38
f 9/95/1 1/96/1 3/1/1
f 4/2/1 5/4/1 6/97/1
f 4/2/1 6/97/1 7/98/1
f 1/96/1 2/99/1 3/1/1
f 4/2/1 7/98/1 8/3/1
f 8/3/1 9/95/1 3/1/1
f 5/4/1 4/2/1 12/100/1
f 12/100/1 13/101/1 15/5/1
f 13/101/1 14/102/1 15/5/1
f 11/103/1 5/4/1 16/6/1
f 2/99/1 1/96/1 10/104/1
f 10/104/1 11/103/1 16/6/1
f 12/100/1 15/5/1 5/4/1
f 16/6/1 2/99/1 10/104/1
f 4/7/2 3/105/2 18/8/2
f 19/10/3 20/106/3 12/11/3
f 20/13/4 21/107/4 13/14/4
f 13/16/5 21/108/5 22/17/5
f 14/19/2 22/109/2 23/20/2
f 24/22/5 16/110/5 15/23/5
f 17/25/4 2/111/4 16/26/4
f 17/112/6 25/113/6 18/30/6
f 18/30/6 25/113/6 26/28/6
f 29/114/6 30/33/6 19/115/6
f 28/116/6 29/114/6 19/115/6
f 19/115/6 18/30/6 27/29/6
f 27/29/6 28/116/6 19/115/6
f 31/117/6 25/113/6 17/112/6
f 24/31/6 23/118/6 35/32/6
f 31/117/6 17/112/6 24/31/6
f 37/119/6 31/117/6 24/31/6
f 23/118/6 32/120/6 33/121/6
f 23/118/6 33/121/6 34/122/6
f 30/33/6 37/119/6 24/31/6
f 20/123/6 19/115/6 36/124/6
f 35/32/6 36/124/6 19/115/6
f 23/118/6 34/122/6 35/32/6
f 19/115/6 30/33/6 35/32/6
f 32/120/6 23/118/6 22/125/6
f 22/125/6 21/34/6 32/120/6
f 20/123/6 36/124/6 38/126/6
f 20/123/6 38/126/6 39/35/6
f 40/36/6 32/120/6 21/34/6
f 20/123/6 39/35/6 21/34/6
f 42/37/1 43/127/1 44/38/1
f 45/40/2 41/128/2 44/41/2
f 47/43/4 48/129/4 43/44/4
f 43/46/5 48/130/5 46/47/5
f 45/49/6 46/131/6 48/50/6
f 81/132/5 49/133/5 51/134/5
f 51/134/5 52/135/5 81/132/5
f 53/136/5 54/137/5 78/138/5
f 55/139/5 56/140/5 77/141/5
f 57/142/5 58/143/5 74/144/5
f 59/145/5 60/56/5 73/146/5
f 61/57/5 62/147/5 70/148/5
f 63/149/5 64/150/5 69/151/5
f 65/152/5 66/153/5 67/154/5
f 67/154/5 68/155/5 65/152/5
f 69/151/5 70/148/5 62/147/5
f 71/156/5 72/55/5 61/57/5
f 73/146/5 74/144/5 58/143/5
f 75/157/5 76/158/5 57/142/5
f 77/141/5 78/138/5 54/137/5
f 79/159/5 80/160/5 53/136/5
f 81/132/5 52/135/5 80/160/5
f 54/137/5 55/139/5 77/141/5
f 58/143/5 59/145/5 73/146/5
f 62/147/5 63/149/5 69/151/5
f 65/152/5 68/155/5 64/150/5
f 70/148/5 71/156/5 61/57/5
f 74/144/5 75/157/5 57/142/5
f 78/138/5 79/159/5 53/136/5
f 52/135/5 53/136/5 80/160/5
f 60/56/5 72/55/5 73/146/5
f 68/155/5 69/151/5 64/150/5
f 76/158/5 56/140/5 57/142/5
f 56/140/5 76/158/5 77/141/5
usemtl Material_NONE
f 2/161/5 18/162/5 3/163/5
f 2/161/5 17/164/5 18/162/5
