# Blender MTL File: 'maze.blend'
# Material Count: 15

newmtl Airport
Ns 94.117647
Ka 1.000000 1.000000 1.000000
Kd 0.800000 0.800000 0.800000
Ks 0.500000 0.500000 0.500000
Ke 0.000000 0.000000 0.000000
Ni 1.000000
d 1.000000
illum 2

newmtl Battle
Ns 94.117647
Ka 1.000000 1.000000 1.000000
Kd 0.640000 0.007514 0.012339
Ks 0.500000 0.500000 0.500000
Ke 0.000000 0.000000 0.000000
Ni 1.000000
d 1.000000
illum 2

newmtl Centra.001
Ns 94.117647
Ka 1.000000 1.000000 1.000000
Kd 0.640000 0.506418 0.053689
Ks 0.500000 0.500000 0.500000
Ke 0.000000 0.000000 0.000000
Ni 1.000000
d 1.000000
illum 2

newmtl Houseroom
Ns 94.117647
Ka 1.000000 1.000000 1.000000
Kd 0.640000 0.058377 0.310526
Ks 0.500000 0.500000 0.500000
Ke 0.000000 0.000000 0.000000
Ni 1.000000
d 1.000000
illum 2

newmtl Material
Ns 96.078431
Ka 1.000000 1.000000 1.000000
Kd 0.419675 0.491692 0.229053
Ks 0.500000 0.500000 0.500000
Ke 0.000000 0.000000 0.000000
Ni 1.000000
d 1.000000
illum 2

newmtl Material.010
Ns 96.078431
Ka 1.000000 1.000000 1.000000
Kd 0.044082 0.640000 0.024572
Ks 0.500000 0.500000 0.500000
Ke 0.000000 0.000000 0.000000
Ni 1.000000
d 1.000000
illum 2

newmtl Material.011
Ns 96.078431
Ka 1.000000 1.000000 1.000000
Kd 0.640000 0.001062 0.443870
Ks 0.500000 0.500000 0.500000
Ke 0.000000 0.000000 0.000000
Ni 1.000000
d 1.000000
illum 2

newmtl POINT
Ns 94.117647
Ka 1.000000 1.000000 1.000000
Kd 0.800000 0.000000 0.000000
Ks 0.500000 0.500000 0.500000
Ke 0.000000 0.000000 0.000000
Ni 1.000000
d 1.000000
illum 2

newmtl POINT.001
Ns 94.117647
Ka 1.000000 1.000000 1.000000
Kd 0.800000 0.000000 0.000000
Ks 0.500000 0.500000 0.500000
Ke 0.000000 0.000000 0.000000
Ni 1.000000
d 1.000000
illum 2

newmtl Quest
Ns 94.117647
Ka 1.000000 1.000000 1.000000
Kd 0.014986 0.640000 0.012716
Ks 0.500000 0.500000 0.500000
Ke 0.000000 0.000000 0.000000
Ni 1.000000
d 1.000000
illum 2

newmtl Shop
Ns 94.117647
Ka 1.000000 1.000000 1.000000
Kd 0.021871 0.720000 0.720000
Ks 0.500000 0.500000 0.500000
Ke 0.000000 0.000000 0.000000
Ni 1.000000
d 1.000000
illum 2

newmtl Start.001
Ns 94.117647
Ka 1.000000 1.000000 1.000000
Kd 0.017837 0.003580 0.640000
Ks 0.500000 0.500000 0.500000
Ke 0.000000 0.000000 0.000000
Ni 1.000000
d 1.000000
illum 2

newmtl WHITE
Ns 94.117647
Ka 1.000000 1.000000 1.000000
Kd 0.800000 0.800000 0.800000
Ks 0.500000 0.500000 0.500000
Ke 0.000000 0.000000 0.000000
Ni 1.000000
d 1.000000
illum 2

newmtl WHITE.001
Ns 94.117647
Ka 1.000000 1.000000 1.000000
Kd 0.800000 0.800000 0.800000
Ks 0.500000 0.500000 0.500000
Ke 0.000000 0.000000 0.000000
Ni 1.000000
d 1.000000
illum 2

newmtl game
Ns 94.117647
Ka 1.000000 1.000000 1.000000
Kd 0.800000 0.328201 0.216327
Ks 0.500000 0.500000 0.500000
Ke 0.000000 0.000000 0.000000
Ni 1.000000
d 1.000000
illum 2
