^X:\GAMEPROGRAMMING\AICORE-MASTER\SRC\ACTION.CPP
/c /I../INCLUDE /ZI /nologo /W1 /WX- /Od /Oy- /Gm- /EHsc /RTC1 /MTd /GS /fp:precise /Zc:wchar_t /Zc:forScope /Zc:inline /Fo"TEMP\DEBUG\\" /Fd"TEMP\DEBUG\AICORE.PDB" /FR"temp\Debug\\" /Gd /TP /analyze- X:\GAMEPROGRAMMING\AICORE-MASTER\SRC\ACTION.CPP
^X:\GAMEPROGRAMMING\AICORE-MASTER\SRC\AIMATH.CPP
/c /I../INCLUDE /ZI /nologo /W1 /WX- /Od /Oy- /Gm- /EHsc /RTC1 /MTd /GS /fp:precise /Zc:wchar_t /Zc:forScope /Zc:inline /Fo"TEMP\DEBUG\\" /Fd"TEMP\DEBUG\AICORE.PDB" /FR"temp\Debug\\" /Gd /TP /analyze- X:\GAMEPROGRAMMING\AICORE-MASTER\SRC\AIMATH.CPP
^X:\GAMEPROGRAMMING\AICORE-MASTER\SRC\BASESM.CPP
/c /I../INCLUDE /ZI /nologo /W1 /WX- /Od /Oy- /Gm- /EHsc /RTC1 /MTd /GS /fp:precise /Zc:wchar_t /Zc:forScope /Zc:inline /Fo"TEMP\DEBUG\\" /Fd"TEMP\DEBUG\AICORE.PDB" /FR"temp\Debug\\" /Gd /TP /analyze- X:\GAMEPROGRAMMING\AICORE-MASTER\SRC\BASESM.CPP
^X:\GAMEPROGRAMMING\AICORE-MASTER\SRC\CORE.CPP
/c /I../INCLUDE /ZI /nologo /W1 /WX- /Od /Oy- /Gm- /EHsc /RTC1 /MTd /GS /fp:precise /Zc:wchar_t /Zc:forScope /Zc:inline /Fo"TEMP\DEBUG\\" /Fd"TEMP\DEBUG\AICORE.PDB" /FR"temp\Debug\\" /Gd /TP /analyze- X:\GAMEPROGRAMMING\AICORE-MASTER\SRC\CORE.CPP
^X:\GAMEPROGRAMMING\AICORE-MASTER\SRC\DECTREE.CPP
/c /I../INCLUDE /ZI /nologo /W1 /WX- /Od /Oy- /Gm- /EHsc /RTC1 /MTd /GS /fp:precise /Zc:wchar_t /Zc:forScope /Zc:inline /Fo"TEMP\DEBUG\\" /Fd"TEMP\DEBUG\AICORE.PDB" /FR"temp\Debug\\" /Gd /TP /analyze- X:\GAMEPROGRAMMING\AICORE-MASTER\SRC\DECTREE.CPP
^X:\GAMEPROGRAMMING\AICORE-MASTER\SRC\KINEMATIC.CPP
/c /I../INCLUDE /ZI /nologo /W1 /WX- /Od /Oy- /Gm- /EHsc /RTC1 /MTd /GS /fp:precise /Zc:wchar_t /Zc:forScope /Zc:inline /Fo"TEMP\DEBUG\\" /Fd"TEMP\DEBUG\AICORE.PDB" /FR"temp\Debug\\" /Gd /TP /analyze- X:\GAMEPROGRAMMING\AICORE-MASTER\SRC\KINEMATIC.CPP
^X:\GAMEPROGRAMMING\AICORE-MASTER\SRC\LEARNING.CPP
/c /I../INCLUDE /ZI /nologo /W1 /WX- /Od /Oy- /Gm- /EHsc /RTC1 /MTd /GS /fp:precise /Zc:wchar_t /Zc:forScope /Zc:inline /Fo"TEMP\DEBUG\\" /Fd"TEMP\DEBUG\AICORE.PDB" /FR"temp\Debug\\" /Gd /TP /analyze- X:\GAMEPROGRAMMING\AICORE-MASTER\SRC\LEARNING.CPP
^X:\GAMEPROGRAMMING\AICORE-MASTER\SRC\LOCATION.CPP
/c /I../INCLUDE /ZI /nologo /W1 /WX- /Od /Oy- /Gm- /EHsc /RTC1 /MTd /GS /fp:precise /Zc:wchar_t /Zc:forScope /Zc:inline /Fo"TEMP\DEBUG\\" /Fd"TEMP\DEBUG\AICORE.PDB" /FR"temp\Debug\\" /Gd /TP /analyze- X:\GAMEPROGRAMMING\AICORE-MASTER\SRC\LOCATION.CPP
^X:\GAMEPROGRAMMING\AICORE-MASTER\SRC\MARKOVSM.CPP
/c /I../INCLUDE /ZI /nologo /W1 /WX- /Od /Oy- /Gm- /EHsc /RTC1 /MTd /GS /fp:precise /Zc:wchar_t /Zc:forScope /Zc:inline /Fo"TEMP\DEBUG\\" /Fd"TEMP\DEBUG\AICORE.PDB" /FR"temp\Debug\\" /Gd /TP /analyze- X:\GAMEPROGRAMMING\AICORE-MASTER\SRC\MARKOVSM.CPP
^X:\GAMEPROGRAMMING\AICORE-MASTER\SRC\QLEARNING.CPP
/c /I../INCLUDE /ZI /nologo /W1 /WX- /Od /Oy- /Gm- /EHsc /RTC1 /MTd /GS /fp:precise /Zc:wchar_t /Zc:forScope /Zc:inline /Fo"TEMP\DEBUG\\" /Fd"TEMP\DEBUG\AICORE.PDB" /FR"temp\Debug\\" /Gd /TP /analyze- X:\GAMEPROGRAMMING\AICORE-MASTER\SRC\QLEARNING.CPP
^X:\GAMEPROGRAMMING\AICORE-MASTER\SRC\RULES.CPP
/c /I../INCLUDE /ZI /nologo /W1 /WX- /Od /Oy- /Gm- /EHsc /RTC1 /MTd /GS /fp:precise /Zc:wchar_t /Zc:forScope /Zc:inline /Fo"TEMP\DEBUG\\" /Fd"TEMP\DEBUG\AICORE.PDB" /FR"temp\Debug\\" /Gd /TP /analyze- X:\GAMEPROGRAMMING\AICORE-MASTER\SRC\RULES.CPP
^X:\GAMEPROGRAMMING\AICORE-MASTER\SRC\SM.CPP
/c /I../INCLUDE /ZI /nologo /W1 /WX- /Od /Oy- /Gm- /EHsc /RTC1 /MTd /GS /fp:precise /Zc:wchar_t /Zc:forScope /Zc:inline /Fo"TEMP\DEBUG\\" /Fd"TEMP\DEBUG\AICORE.PDB" /FR"temp\Debug\\" /Gd /TP /analyze- X:\GAMEPROGRAMMING\AICORE-MASTER\SRC\SM.CPP
^X:\GAMEPROGRAMMING\AICORE-MASTER\SRC\STEERING.CPP
/c /I../INCLUDE /ZI /nologo /W1 /WX- /Od /Oy- /Gm- /EHsc /RTC1 /MTd /GS /fp:precise /Zc:wchar_t /Zc:forScope /Zc:inline /Fo"TEMP\DEBUG\\" /Fd"TEMP\DEBUG\AICORE.PDB" /FR"temp\Debug\\" /Gd /TP /analyze- X:\GAMEPROGRAMMING\AICORE-MASTER\SRC\STEERING.CPP
^X:\GAMEPROGRAMMING\AICORE-MASTER\SRC\STEERPIPE.CPP
/c /I../INCLUDE /ZI /nologo /W1 /WX- /Od /Oy- /Gm- /EHsc /RTC1 /MTd /GS /fp:precise /Zc:wchar_t /Zc:forScope /Zc:inline /Fo"TEMP\DEBUG\\" /Fd"TEMP\DEBUG\AICORE.PDB" /FR"temp\Debug\\" /Gd /TP /analyze- X:\GAMEPROGRAMMING\AICORE-MASTER\SRC\STEERPIPE.CPP
^X:\GAMEPROGRAMMING\AICORE-MASTER\SRC\TIMING.CPP
/c /I../INCLUDE /ZI /nologo /W1 /WX- /Od /Oy- /Gm- /EHsc /RTC1 /MTd /GS /fp:precise /Zc:wchar_t /Zc:forScope /Zc:inline /Fo"TEMP\DEBUG\\" /Fd"TEMP\DEBUG\AICORE.PDB" /FR"temp\Debug\\" /Gd /TP /analyze- X:\GAMEPROGRAMMING\AICORE-MASTER\SRC\TIMING.CPP
