^X:\GAMEPROGRAMMING\AICORE-MASTER\SRC\DEMOS\C03_FLOCKING\FLOCKING_DEMO.CPP|X:\GAMEPROGRAMMING\AICORE-MASTER\SRC\DEMOS\C03_FLOCKING\FLOCK_STEER.CPP|X:\GAMEPROGRAMMING\AICORE-MASTER\SRC\DEMOS\COMMON\GL\APP.CPP|X:\GAMEPROGRAMMING\AICORE-MASTER\SRC\DEMOS\COMMON\GL\MAIN.CPP
X:\GAMEPROGRAMMING\AICORE-MASTER\BUILD\TEMP\DEBUG\VC140.PDB
X:\GAMEPROGRAMMING\AICORE-MASTER\BUILD\TEMP\DEBUG\VC140.IDB
X:\GAMEPROGRAMMING\AICORE-MASTER\BUILD\TEMP\DEBUG\FLOCKING_DEMO.SBR
X:\GAMEPROGRAMMING\AICORE-MASTER\BUILD\TEMP\DEBUG\FLOCK_STEER.SBR
X:\GAMEPROGRAMMING\AICORE-MASTER\BUILD\TEMP\DEBUG\APP.SBR
X:\GAMEPROGRAMMING\AICORE-MASTER\BUILD\TEMP\DEBUG\MAIN.SBR
X:\GAMEPROGRAMMING\AICORE-MASTER\BUILD\TEMP\DEBUG\MAIN.OBJ
X:\GAMEPROGRAMMING\AICORE-MASTER\BUILD\TEMP\DEBUG\APP.OBJ
X:\GAMEPROGRAMMING\AICORE-MASTER\BUILD\TEMP\DEBUG\FLOCK_STEER.OBJ
X:\GAMEPROGRAMMING\AICORE-MASTER\BUILD\TEMP\DEBUG\FLOCKING_DEMO.OBJ
^X:\GAMEPROGRAMMING\AICORE-MASTER\SRC\DEMOS\C03_FLOCKING\FLOCKING_DEMO.CPP
X:\GAMEPROGRAMMING\AICORE-MASTER\BUILD\TEMP\DEBUG\VC140.PDB
^X:\GAMEPROGRAMMING\AICORE-MASTER\SRC\DEMOS\C03_FLOCKING\FLOCK_STEER.CPP
X:\GAMEPROGRAMMING\AICORE-MASTER\BUILD\TEMP\DEBUG\VC140.PDB
^X:\GAMEPROGRAMMING\AICORE-MASTER\SRC\DEMOS\COMMON\GL\APP.CPP
X:\GAMEPROGRAMMING\AICORE-MASTER\BUILD\TEMP\DEBUG\VC140.PDB
^X:\GAMEPROGRAMMING\AICORE-MASTER\SRC\DEMOS\COMMON\GL\MAIN.CPP
X:\GAMEPROGRAMMING\AICORE-MASTER\BUILD\TEMP\DEBUG\VC140.PDB
